<?xml version="1.0" encoding="utf-8"?>
<!-- Generator: Adobe Illustrator 17.0.0, SVG Export Plug-In . SVG Version: 6.00 Build 0)  -->
<!DOCTYPE svg PUBLIC "-//W3C//DTD SVG 1.1//EN" "http://www.w3.org/Graphics/SVG/1.1/DTD/svg11.dtd">
<svg version="1.1" id="Capa_1" xmlns="http://www.w3.org/2000/svg" xmlns:xlink="http://www.w3.org/1999/xlink" x="0px" y="0px"
	 width="141.039px" height="150.055px" viewBox="0 0 141.039 150.055" enable-background="new 0 0 141.039 150.055"
	 xml:space="preserve">
<g>
	<polygon fill-rule="evenodd" clip-rule="evenodd" fill="#14A554" points="0.107,0.193 23.988,16.315 47.863,0.193 47.863,48.603 
		0.107,48.603 	"/>
	<polygon fill-rule="evenodd" clip-rule="evenodd" fill="#486376" points="0,49.883 23.723,49.883 23.661,73.381 47.812,73.3 
		47.812,98.511 0,98.511 	"/>
	<polygon fill-rule="evenodd" clip-rule="evenodd" fill="#E82E7B" points="96.565,84.927 96.565,98.511 49.213,98.511 
		49.213,49.883 96.565,49.883 96.565,63.268 72.847,63.268 72.847,67.309 96.547,67.309 96.547,80.465 72.679,80.465 72.679,84.985 
			"/>
	<path fill-rule="evenodd" clip-rule="evenodd" fill="#7EC4A0" d="M47.311,135.009v13.436H0.052V99.816h47.26V113.3H24.288
		c0,7.862,0,13.735,0,21.717L47.311,135.009z"/>
	<path fill-rule="evenodd" clip-rule="evenodd" fill="#DA3538" d="M120.289,124.799c0.647,0.006,1.219,0.241,1.711,0.706
		c0.497,0.465,0.883,1.109,1.166,1.929c0.278,0.816,0.422,1.769,0.428,2.843c0.005,0.626-0.027,1.241-0.085,1.832
		c-0.064,0.597-0.172,1.131-0.327,1.614c-0.155,0.482-0.374,0.861-0.658,1.149c-0.284,0.281-0.642,0.431-1.08,0.437
		c-0.391,0-0.77-0.166-1.134-0.494c-0.369-0.333-0.7-0.81-1-1.442c-0.3-0.626-0.535-1.396-0.711-2.297
		c-0.171-0.902-0.262-1.924-0.268-3.073c0-0.54,0.011-1.045,0.037-1.528c0.027-0.482,0.075-0.914,0.155-1.298
		c0.268-0.12,0.546-0.213,0.834-0.281C119.647,124.833,119.957,124.799,120.289,124.799 M118.717,123.834
		c0.241-1.074,0.545-2.01,0.925-2.815c0.38-0.804,0.797-1.493,1.252-2.062c0.449-0.568,0.898-1.039,1.353-1.413
		c0.449-0.374,0.872-0.666,1.252-0.879c0.535-0.293,1.075-0.551,1.626-0.764c0.546-0.212,1.064-0.373,1.551-0.477l-0.224-1.241
		c-0.423,0.069-0.872,0.155-1.353,0.253c-0.481,0.098-0.968,0.213-1.454,0.344c-0.487,0.132-0.952,0.275-1.396,0.436
		c-0.738,0.27-1.487,0.649-2.246,1.143c-0.764,0.494-1.492,1.103-2.192,1.832c-0.695,0.724-1.321,1.562-1.877,2.527
		c-0.551,0.959-0.989,2.039-1.31,3.239c-0.321,1.201-0.487,2.527-0.492,3.974c0.005,1.362,0.177,2.585,0.508,3.665
		c0.332,1.079,0.797,1.998,1.401,2.751c0.604,0.758,1.31,1.338,2.123,1.734c0.818,0.396,1.706,0.597,2.674,0.603
		c1.005-0.006,1.925-0.207,2.76-0.603c0.834-0.396,1.556-0.948,2.16-1.654c0.61-0.706,1.081-1.522,1.412-2.452
		c0.332-0.931,0.497-1.936,0.503-3.01c-0.005-1.286-0.251-2.412-0.733-3.388c-0.481-0.976-1.15-1.735-2.011-2.286
		c-0.856-0.551-1.856-0.827-3-0.839c-0.284,0.006-0.578,0.063-0.883,0.178c-0.299,0.12-0.626,0.264-0.979,0.442L118.717,123.834z
		 M105.601,124.799c0.647,0.006,1.219,0.241,1.711,0.706c0.497,0.465,0.882,1.109,1.166,1.929c0.278,0.816,0.422,1.769,0.427,2.843
		c0.006,0.626-0.027,1.241-0.085,1.832c-0.064,0.597-0.171,1.131-0.326,1.614c-0.155,0.482-0.375,0.861-0.658,1.149
		c-0.283,0.281-0.642,0.431-1.08,0.437c-0.39,0-0.77-0.166-1.134-0.494c-0.369-0.333-0.7-0.81-1-1.442
		c-0.299-0.626-0.535-1.396-0.711-2.297c-0.171-0.902-0.262-1.924-0.267-3.073c0-0.54,0.011-1.045,0.037-1.528
		c0.027-0.482,0.075-0.914,0.155-1.298c0.268-0.12,0.546-0.213,0.835-0.281C104.96,124.833,105.27,124.799,105.601,124.799z
		 M99.611,99.852l13.963-0.035l13.858,12.878V99.864h13.607v26.033c-0.333-0.624-0.798-1.171-1.394-1.638
		c-0.674-0.528-1.513-0.902-2.518-1.114v-0.138c0.556-0.356,1.01-0.655,1.369-0.907c0.358-0.247,0.658-0.5,0.909-0.747
		c0.294-0.293,0.535-0.637,0.717-1.028c0.182-0.385,0.273-0.816,0.278-1.281c-0.005-0.902-0.198-1.706-0.593-2.401
		c-0.391-0.695-0.958-1.246-1.701-1.643c-0.743-0.396-1.647-0.603-2.711-0.609c-0.663,0.006-1.262,0.103-1.797,0.287
		c-0.54,0.19-1.016,0.437-1.428,0.741c-0.417,0.31-0.775,0.643-1.075,1.005l-1.508,2.275l0.835,0.758
		c0.353-0.505,0.7-0.942,1.053-1.298c0.358-0.362,0.727-0.638,1.123-0.827c0.39-0.19,0.823-0.287,1.288-0.287
		c0.476-0.012,0.915,0.098,1.311,0.321c0.396,0.224,0.711,0.569,0.952,1.034c0.241,0.465,0.364,1.045,0.369,1.746
		c-0.005,0.741-0.187,1.39-0.551,1.947c-0.369,0.552-0.888,1.04-1.567,1.459c-0.679,0.419-1.492,0.804-2.439,1.143l0.257,1.137
		c0.246-0.104,0.518-0.184,0.813-0.236c0.3-0.052,0.594-0.075,0.888-0.075c0.449-0.006,0.888,0.081,1.326,0.247
		c0.439,0.172,0.835,0.442,1.198,0.815c0.358,0.373,0.647,0.867,0.867,1.482c0.214,0.615,0.326,1.362,0.331,2.246
		c-0.005,0.953-0.118,1.763-0.342,2.424c-0.225,0.661-0.54,1.161-0.941,1.505c-0.401,0.345-0.872,0.517-1.412,0.517
		c-0.439-0.006-0.856-0.074-1.236-0.207c-0.385-0.138-0.733-0.304-1.048-0.511c-0.321-0.207-0.599-0.419-0.845-0.632
		c-0.246-0.219-0.454-0.414-0.626-0.58c-0.209-0.201-0.406-0.299-0.599-0.293c-0.193,0.006-0.38,0.081-0.556,0.224
		c-0.134,0.115-0.267,0.247-0.401,0.402c-0.139,0.149-0.257,0.316-0.348,0.494c-0.096,0.184-0.144,0.379-0.15,0.586
		c0,0.236,0.048,0.46,0.155,0.672c0.107,0.212,0.278,0.436,0.519,0.672c0.187,0.178,0.444,0.35,0.776,0.517
		c0.331,0.167,0.711,0.304,1.134,0.413c0.422,0.109,0.866,0.167,1.332,0.173c0.337,0,0.775-0.069,1.316-0.207
		c0.545-0.138,1.139-0.35,1.786-0.632c0.642-0.287,1.289-0.649,1.931-1.091c0.647-0.442,1.236-0.965,1.77-1.573
		c0.481-0.537,0.878-1.147,1.185-1.827v17.134h-13.565l-14.169-11.654v11.598l-13.741,0.031l0.018-18.526
		c0.085,0.585,0.207,1.138,0.367,1.657c0.332,1.079,0.797,1.998,1.401,2.751c0.604,0.758,1.31,1.338,2.123,1.734
		c0.818,0.396,1.706,0.597,2.674,0.603c1.005-0.006,1.925-0.207,2.759-0.603c0.835-0.396,1.556-0.948,2.161-1.654
		c0.61-0.706,1.08-1.522,1.412-2.452c0.332-0.931,0.497-1.936,0.503-3.01c-0.005-1.286-0.251-2.412-0.732-3.388
		c-0.481-0.976-1.15-1.735-2.011-2.286c-0.856-0.551-1.856-0.827-3-0.839c-0.284,0.006-0.577,0.063-0.882,0.178
		c-0.3,0.12-0.626,0.264-0.979,0.442l-1.348,0.758c0.241-1.074,0.546-2.01,0.925-2.815c0.379-0.804,0.797-1.493,1.251-2.062
		c0.449-0.568,0.899-1.039,1.353-1.413c0.449-0.374,0.872-0.666,1.251-0.879c0.535-0.293,1.075-0.551,1.626-0.764
		c0.546-0.212,1.064-0.373,1.551-0.477l-0.225-1.241c-0.423,0.069-0.872,0.155-1.353,0.253c-0.482,0.098-0.968,0.213-1.455,0.344
		c-0.486,0.132-0.952,0.275-1.396,0.436c-0.738,0.27-1.487,0.649-2.246,1.143c-0.765,0.494-1.492,1.103-2.192,1.832
		c-0.696,0.724-1.321,1.562-1.877,2.527c-0.551,0.959-0.989,2.039-1.31,3.239c-0.149,0.558-0.265,1.144-0.346,1.757L99.611,99.852z"
		/>
	<path fill-rule="evenodd" clip-rule="evenodd" fill="#FEE24B" d="M72.446,99.368c13.997,0,25.343,11.346,25.343,25.343
		c0,13.997-11.347,25.343-25.343,25.343c-13.997,0-25.343-11.347-25.343-25.343C47.103,110.715,58.449,99.368,72.446,99.368"/>
	<path fill-rule="evenodd" clip-rule="evenodd" fill="#73AECD" d="M62.727,12.904h20.951v4.237H62.727V12.904z M62.404,48.615
		H49.153V0h47.654l-0.096,48.543H83.656l0.035-7.869l-21.282-0.04L62.404,48.615z"/>
</g>
</svg>
