<?xml version="1.0" encoding="utf-8"?>
<!-- Generator: Adobe Illustrator 17.0.0, SVG Export Plug-In . SVG Version: 6.00 Build 0)  -->
<!DOCTYPE svg PUBLIC "-//W3C//DTD SVG 1.1//EN" "http://www.w3.org/Graphics/SVG/1.1/DTD/svg11.dtd">
<svg version="1.1" id="Capa_1" xmlns="http://www.w3.org/2000/svg" xmlns:xlink="http://www.w3.org/1999/xlink" x="0px" y="0px"
	 width="50.686px" height="50.686px" viewBox="0 0 50.686 50.686" enable-background="new 0 0 50.686 50.686" xml:space="preserve">
<path fill-rule="evenodd" clip-rule="evenodd" fill="#ECD95D" d="M25.343,0C39.34,0,50.686,11.346,50.686,25.343
	c0,13.997-11.347,25.343-25.343,25.343C11.347,50.686,0,39.339,0,25.343C0,11.346,11.347,0,25.343,0"/>
</svg>
